Using ANN To Predict Euthanasia in LMAS Intake
…
Now that we have our prediction on the held-out test data and we know the actuals, we can compare results and diagnose accuracy for our model. This is generally done through a combination of a confusion matrix (a 2x2 matrix of true/false predictions vs true/false actuals), and the area under the receiver operating charactersic (AUC, ROC) curve. This measures the True Positive Rate (TPR) vs. False Positive Rate (FPR) - and the area under is maximized when the model is not sacrificing Sensitivity (TPR) for Specificity (True Negative Rate).

So, let’s first look at the confusion matrix:

# Format prediction and actuals
estimates_euth_tbl <- tibble(
  truth = as.factor(y_euth_test_vec) %>% fct_recode(yes = "1", no = "0"),
  estimate = as.factor(yhat_euth_vec) %>% fct_recode(yes = "1", no = "0"),
  class_prob = yhat_euth_prob_vec %>% percent(2)
)
  
estimates_euth_tbl

## # A tibble: 27,888 x 3
##    truth estimate class_prob       
##    <fct> <fct>    <S3: formattable>
##  1 yes   yes      99.93%           
##  2 no    no       0.00%            
##  3 yes   yes      99.98%           
##  4 yes   yes      99.95%           
##  5 yes   yes      99.96%           
##  6 yes   yes      100.00%          
##  7 yes   yes      100.00%          
##  8 yes   yes      100.00%          
##  9 yes   yes      99.98%           
## 10 yes   yes      99.98%           
## # ... with 27,878 more rows
…
Correlation plots show us individual relationships between each input variable and the target variable. This also stands as a good gut check to the feature importance (which, while not explicitly shown in this post, only age shows value when looking at feature importance on select observations).

# Feature correlations to euthanasia
corrr_analysis <- x_euth_train_tbl %>%
    mutate(animal_euth = y_euth_train_vec) %>%
    correlate() %>%
    focus(animal_euth) %>%
    rename(feature = rowname) %>%
    arrange(abs(animal_euth)) %>%
    mutate(feature = as_factor(feature)) 

corrr_analysis %>% arrange(desc(animal_euth))

## # A tibble: 516 x 2
##    feature                                    animal_euth
##    <fct>                                            <dbl>
##  1 ReproductiveStatusAtIntake_UNKNOWN              0.250 
##  2 Gender_UNKNOWN                                  0.245 
##  3 Gender_MALE                                     0.203 
##  4 AnimalType_CAT                                  0.201 
##  5 PrimaryBreed_DOMESTIC.SHORTHAIR                 0.197 
##  6 IntakeReason_unknown                            0.167 
##  7 length_of_stay_bin3                             0.166 
##  8 IntakeAsilomarStatus_UNHEALTHY.UNTREATABLE      0.139 
##  9 IntakeInternalStatus_SICK                       0.136 
## 10 IntakeInternalStatus_FERAL                      0.0981
## # ... with 506 more rows
…
