Into the Tidyverse
…
## Warning in summary.lm(x): essentially perfect fit: summary may be
## unreliable

## Warning in summary.lm(x): essentially perfect fit: summary may be
## unreliable

## Warning in summary.lm(x): essentially perfect fit: summary may be
## unreliable

## Warning in summary.lm(x): essentially perfect fit: summary may be
## unreliable

## # A tibble: 169,566 x 6
##    name      term           estimate std.error statistic  p.value
##    <chr>     <chr>             <dbl>     <dbl>     <dbl>    <dbl>
##  1 Mary      (Intercept)  166612.     72454.      2.30   2.23e- 2
##  2 Mary      year            -77.6       37.2    -2.09   3.80e- 2
##  3 Anna      (Intercept)    3917.     11896.      0.329  7.42e- 1
##  4 Anna      year             -0.328      6.11   -0.0538 9.57e- 1
##  5 Emma      (Intercept)  -73874.     13659.     -5.41   1.50e- 7
##  6 Emma      year             39.2        7.02    5.59   5.97e- 8
##  7 Elizabeth (Intercept)  -90987.     20654.     -4.41   1.53e- 5
##  8 Elizabeth year             49.8       10.6     4.70   4.25e- 6
##  9 Minnie    (Intercept)   24095.      3388.      7.11   1.84e-11
## 10 Minnie    year            -12.0        1.75   -6.89   6.69e-11
## # ... with 169,556 more rows
…
